<svg xmlns="http://www.w3.org/2000/svg" width="19.125" height="32.594" viewBox="0 0 19.125 32.594">
  <g id="btn_right_arrow" transform="translate(2.828 2.828)">
    <line id="Line_66" data-name="Line 66" x2="13.469" y2="13.469" fill="none" stroke="#bbb" stroke-linecap="round" stroke-width="4"/>
    <line id="Line_67" data-name="Line 67" x1="13.469" y2="13.469" transform="translate(0 13.469)" fill="none" stroke="#bbb" stroke-linecap="round" stroke-width="4"/>
  </g>
</svg>
