<svg xmlns="http://www.w3.org/2000/svg" xmlns:xlink="http://www.w3.org/1999/xlink" width="266" height="266" viewBox="0 0 266 266">
  <defs>
    <linearGradient id="linear-gradient" x1="0.5" x2="0.5" y2="1" gradientUnits="objectBoundingBox">
      <stop offset="0" stop-color="#fff"/>
      <stop offset="1" stop-color="#fff" stop-opacity="0.576"/>
    </linearGradient>
  </defs>
  <g id="guide_move" transform="translate(3968.475 3583.696)">
    <circle id="Ellipse_372" data-name="Ellipse 372" cx="133" cy="133" r="133" transform="translate(-3968.475 -3583.696)" opacity="0.7" fill="url(#linear-gradient)"/>
    <g id="Group_23" data-name="Group 23" transform="translate(-11944.598 -5113.46)">
      <g id="ICON_move" transform="translate(8045.916 1587.07)">
        <path id="Path_271" data-name="Path 271" d="M38.767,53.412A3.633,3.633,0,0,0,44,48.371l-4.823-5.016H65.705a3.618,3.618,0,1,0,0-7.235H39.177L44,31.1a3.618,3.618,0,0,0-5.185-5.04L27.938,37.229a3.618,3.618,0,0,0,0,5.04Z" transform="translate(-26.916 -25.05)" fill="#1c69d4"/>
        <path id="Path_1388" data-name="Path 1388" d="M57.472,53.412a3.633,3.633,0,1,1-5.233-5.04l4.823-5.016H30.534a3.618,3.618,0,0,1,0-7.235H57.062L52.239,31.1a3.618,3.618,0,0,1,5.185-5.04L68.3,37.229a3.618,3.618,0,0,1,0,5.04Z" transform="translate(68.084 -25.05)" fill="#1c69d4"/>
        <path id="Path_1387" data-name="Path 1387" d="M36.958,80.891v-.314a4.219,4.219,0,0,1,7.983-2.7l2.412,12.782a3.618,3.618,0,0,0,6.9.675l20.644-51.2a4.413,4.413,0,0,1,5.74-2.412h0a4.413,4.413,0,0,1,2.412,5.716l-16.4,40.83a3.618,3.618,0,0,0,6.7,2.7L86.9,53.422h0l5.571-13.795a4.413,4.413,0,0,1,5.692-2.412h0a4.413,4.413,0,0,1,2.412,5.74l-19,47.269h0a3.618,3.618,0,0,0,6.15,3.618h0a3.568,3.568,0,0,0,.531-.868l4.992-12.348a4.413,4.413,0,0,1,5.74-2.412h0A4.413,4.413,0,0,1,101.4,83.93L94.4,101.39a3.618,3.618,0,1,0,6.7,2.7l1.543-3.81v-.145l1.905-4.534a4.413,4.413,0,0,1,5.716-2.412l.386.145a4.413,4.413,0,0,1,2.412,5.74l-14.856,36.8-13.361,8.537a3.617,3.617,0,0,0-1.4,1.688L78.173,159.15,40.6,143.957l5.257-13.047a3.593,3.593,0,0,0,.193-2.026Z" transform="translate(-18.838 -18.548)" fill="none" opacity="0.8"/>
        <path id="Trazado_279" data-name="Trazado 279" d="M-3796.1-3459.024l-.457-.144a11.585,11.585,0,0,0-4.525-.842,11.5,11.5,0,0,0-6.643-14.1h0a11.505,11.505,0,0,0-6.282-.65,11.337,11.337,0,0,0-7-9h0a11.594,11.594,0,0,0-4.4-.842l5.914-14.66a11.624,11.624,0,0,0-6.33-15.09h0a11.624,11.624,0,0,0-15.134,6.418l0,.008-16.318,39.516-.168-.89a3.089,3.089,0,0,0,0-.409,11.483,11.483,0,0,0-14.489-7.331,11.483,11.483,0,0,0-7.532,13.8l8.857,46.69-6.209,15.379a3.611,3.611,0,0,0,1.859,4.755c.047.02.094.04.141.058l44.256,17.881a3.6,3.6,0,0,0,4.688-1.986l0-.014,6.185-15.307,13.333-8.52a3.61,3.61,0,0,0,1.4-1.685l15.255-37.758a11.624,11.624,0,0,0-6.417-15.134l-.009,0Zm-.289,12.419-14.825,36.7-13.333,8.52a3.611,3.611,0,0,0-1.4,1.685l-5.243,13.118-37.569-15.259,5.247-13.02a3.582,3.582,0,0,0,.193-2.022l-9.074-47.893v-.313a4.211,4.211,0,0,1,2.878-5.212,4.21,4.21,0,0,1,5.088,2.512l2.407,12.756a3.61,3.61,0,0,0,4.238,2.848,3.608,3.608,0,0,0,2.645-2.174l20.674-51.139a4.4,4.4,0,0,1,5.68-2.407h0a4.4,4.4,0,0,1,2.407,5.728l-16.39,40.746a3.61,3.61,0,0,0,2.407,4.5,3.609,3.609,0,0,0,4.284-1.855l6.474-16a4.429,4.429,0,0,1,5.68-2.407h0a4.4,4.4,0,0,1,2.406,5.729l-6.33,16.053a3.61,3.61,0,0,0,2.113,4.648,3.538,3.538,0,0,0,.587.165h.674a3.578,3.578,0,0,0,.89-.144h.242a3.567,3.567,0,0,0,.746-.361h0a3.571,3.571,0,0,0,.674-.626l.144-.193a3.529,3.529,0,0,0,.5-.842l4.982-12.322a4.4,4.4,0,0,1,5.68-2.407h0a4.4,4.4,0,0,1,2.407,5.728l-6.859,17.425a3.609,3.609,0,0,0,1.825,4.768,3.61,3.61,0,0,0,4.768-1.824c.036-.08.069-.161.1-.244l1.54-3.8v-.144l1.8-4.476a4.4,4.4,0,0,1,5.728-2.407l.385.168a4.4,4.4,0,0,1,2.407,5.728Z" transform="translate(3899.682 3526.391)" fill="#353535"/>
      </g>
    </g>
  </g>
</svg>
